EBAME4 tutorial
…
Dont you see anything strange in those results?

Answer

How can be possible that some EUs have a taxonomic annotation?

cluster_taxonomy %>% filter(category == "eu")

## # A tibble: 211 x 9
##    category cluster  kingdom  phylum  class  order family genus specie    
##    <chr>    <chr>    <chr>    <chr>   <chr>  <chr> <chr>  <chr> <chr>     
##  1 eu       10061584 Bacteria Candid <NA>   <NA>  <NA>   <NA>  Candidatu
##  2 eu       10202854 Bacteria Proteo <NA>   Delt <NA>   <NA>  Deltaprot
##  3 eu       10283195 Bacteria Bacter Flavo Flav <NA>   <NA>  Flavobact
##  4 eu       10489724 Bacteria Proteo <NA>   Delt <NA>   <NA>  Deltaprot
##  5 eu       10532694 Bacteria Proteo <NA>   Gamm <NA>   <NA>  Gammaprot
##  6 eu       10538300 Bacteria Proteo <NA>   Delt <NA>   <NA>  Deltaprot
##  7 eu       10606625 Bacteria Proteo <NA>   Delt <NA>   <NA>  Deltaprot
##  8 eu       10640369 Bacteria Bacter <NA>   <NA>  <NA>   <NA>  Bacteroid
##  9 eu       10736179 Bacteria Proteo <NA>   Gamm <NA>   <NA>  Gammaprot
## 10 eu       10746716 Archaea <NA>    <NA>   <NA>  <NA>   <NA>  Candidatu
## # ... with 201 more rows
…
